{"failedCount":1,"prefixedPath":"classpath:feature\/REST_GET.feature","packageQualifiedName":"feature.REST_GET","loopIndex":-1,"relativePath":"feature\/REST_GET.feature","scenarioResults":[{"sectionIndex":0,"stepResults":[{"result":{"nanos":82489221,"millis":82.489221,"status":"passed"},"step":{"background":true,"line":4,"prefix":"*","index":0,"text":"url 'https:\/\/reqres.in\/api'"}},{"result":{"nanos":5710603,"millis":5.710603,"status":"passed"},"step":{"background":true,"line":5,"prefix":"*","index":1,"text":"header Accept = 'application\/json'"}},{"result":{"nanos":509036,"millis":0.509036,"status":"passed"},"step":{"line":8,"prefix":"Given","index":0,"text":"url 'https:\/\/reqres.in\/api\/users?page=2'"}},{"result":{"nanos":907564949,"millis":907.564949,"status":"passed"},"step":{"line":9,"prefix":"When","index":1,"text":"method GET"},"stepLog":"23:55:07.736 request:\n1 > GET https:\/\/reqres.in\/api\/users?page=2\n1 > Accept: application\/json\n1 > Host: reqres.in\n1 > Connection: Keep-Alive\n1 > User-Agent: Apache-HttpClient\/4.5.13 (Java\/1.8.0_382)\n1 > Accept-Encoding: gzip,deflate\n\n\n23:55:08.203 response time in milliseconds: 466\n1 < 200\n1 < Date: Fri, 11 Aug 2023 23:55:08 GMT\n1 < Content-Type: application\/json; charset=utf-8\n1 < Transfer-Encoding: chunked\n1 < Connection: keep-alive\n1 < X-Powered-By: Express\n1 < Access-Control-Allow-Origin: *\n1 < Etag: W\/\"406-ut0vzoCuidvyMf8arZpMpJ6ZRDw\"\n1 < Via: 1.1 vegur\n1 < Cache-Control: max-age=14400\n1 < CF-Cache-Status: HIT\n1 < Age: 2606\n1 < Report-To: {\"endpoints\":[{\"url\":\"https:\\\/\\\/a.nel.cloudflare.com\\\/report\\\/v3?s=6I8cbO40S3UY68dgP7MpkGPLrFXk7TIo6Gc%2FLEOCXvkCpePYkQS3Y601czq5wyS38k9D3tJvAwFMwDVD84tdCL3nEaYEczQDdA%2BNL0H2ZeevJPV4mnCbsBHJjg%3D%3D\"}],\"group\":\"cf-nel\",\"max_age\":604800}\n1 < NEL: {\"success_fraction\":0,\"report_to\":\"cf-nel\",\"max_age\":604800}\n1 < Vary: Accept-Encoding\n1 < Server: cloudflare\n1 < CF-RAY: 7f54686029cf358d-DFW\n{\"page\":2,\"per_page\":6,\"total\":12,\"total_pages\":2,\"data\":[{\"id\":7,\"email\":\"michael.lawson@reqres.in\",\"first_name\":\"Michael\",\"last_name\":\"Lawson\",\"avatar\":\"https:\/\/reqres.in\/img\/faces\/7-image.jpg\"},{\"id\":8,\"email\":\"lindsay.ferguson@reqres.in\",\"first_name\":\"Lindsay\",\"last_name\":\"Ferguson\",\"avatar\":\"https:\/\/reqres.in\/img\/faces\/8-image.jpg\"},{\"id\":9,\"email\":\"tobias.funke@reqres.in\",\"first_name\":\"Tobias\",\"last_name\":\"Funke\",\"avatar\":\"https:\/\/reqres.in\/img\/faces\/9-image.jpg\"},{\"id\":10,\"email\":\"byron.fields@reqres.in\",\"first_name\":\"Byron\",\"last_name\":\"Fields\",\"avatar\":\"https:\/\/reqres.in\/img\/faces\/10-image.jpg\"},{\"id\":11,\"email\":\"george.edwards@reqres.in\",\"first_name\":\"George\",\"last_name\":\"Edwards\",\"avatar\":\"https:\/\/reqres.in\/img\/faces\/11-image.jpg\"},{\"id\":12,\"email\":\"rachel.howell@reqres.in\",\"first_name\":\"Rachel\",\"last_name\":\"Howell\",\"avatar\":\"https:\/\/reqres.in\/img\/faces\/12-image.jpg\"}],\"support\":{\"url\":\"https:\/\/reqres.in\/#support-heading\",\"text\":\"To keep ReqRes free, contributions towards server costs are appreciated!\"}}\n\n"},{"result":{"nanos":7000,"millis":0.007,"status":"passed"},"step":{"line":10,"prefix":"Then","index":2,"text":"status 200"}},{"result":{"nanos":19326464,"millis":19.326464,"status":"passed"},"step":{"line":11,"prefix":"And","index":3,"text":"print response"},"stepLog":"23:55:08.231 [print] {\n  \"page\": 2,\n  \"per_page\": 6,\n  \"total\": 12,\n  \"total_pages\": 2,\n  \"data\": [\n    {\n      \"id\": 7,\n      \"email\": \"michael.lawson@reqres.in\",\n      \"first_name\": \"Michael\",\n      \"last_name\": \"Lawson\",\n      \"avatar\": \"https:\/\/reqres.in\/img\/faces\/7-image.jpg\"\n    },\n    {\n      \"id\": 8,\n      \"email\": \"lindsay.ferguson@reqres.in\",\n      \"first_name\": \"Lindsay\",\n      \"last_name\": \"Ferguson\",\n      \"avatar\": \"https:\/\/reqres.in\/img\/faces\/8-image.jpg\"\n    },\n    {\n      \"id\": 9,\n      \"email\": \"tobias.funke@reqres.in\",\n      \"first_name\": \"Tobias\",\n      \"last_name\": \"Funke\",\n      \"avatar\": \"https:\/\/reqres.in\/img\/faces\/9-image.jpg\"\n    },\n    {\n      \"id\": 10,\n      \"email\": \"byron.fields@reqres.in\",\n      \"first_name\": \"Byron\",\n      \"last_name\": \"Fields\",\n      \"avatar\": \"https:\/\/reqres.in\/img\/faces\/10-image.jpg\"\n    },\n    {\n      \"id\": 11,\n      \"email\": \"george.edwards@reqres.in\",\n      \"first_name\": \"George\",\n      \"last_name\": \"Edwards\",\n      \"avatar\": \"https:\/\/reqres.in\/img\/faces\/11-image.jpg\"\n    },\n    {\n      \"id\": 12,\n      \"email\": \"rachel.howell@reqres.in\",\n      \"first_name\": \"Rachel\",\n      \"last_name\": \"Howell\",\n      \"avatar\": \"https:\/\/reqres.in\/img\/faces\/12-image.jpg\"\n    }\n  ],\n  \"support\": {\n    \"url\": \"https:\/\/reqres.in\/#support-heading\",\n    \"text\": \"To keep ReqRes free, contributions towards server costs are appreciated!\"\n  }\n}\n \n"}],"executorName":"pool-1-thread-3","line":7,"name":"Simple GET","description":"","durationMillis":1015.607273,"startTime":1691798107192,"failed":false,"refId":"[1:7]","endTime":1691798108235,"exampleIndex":-1},{"sectionIndex":1,"stepResults":[{"result":{"nanos":84198042,"millis":84.198042,"status":"passed"},"step":{"background":true,"line":4,"prefix":"*","index":0,"text":"url 'https:\/\/reqres.in\/api'"}},{"result":{"nanos":474833,"millis":0.474833,"status":"passed"},"step":{"background":true,"line":5,"prefix":"*","index":1,"text":"header Accept = 'application\/json'"}},{"result":{"nanos":358925,"millis":0.358925,"status":"passed"},"step":{"line":14,"prefix":"Given","index":0,"text":"path '\/users'"}},{"result":{"nanos":16059233,"millis":16.059233,"status":"passed"},"step":{"line":15,"prefix":"And","index":1,"text":"param page = 2"}},{"result":{"nanos":892565790,"millis":892.56579,"status":"passed"},"step":{"line":16,"prefix":"When","index":2,"text":"method GET"},"stepLog":"23:55:07.739 request:\n1 > GET https:\/\/reqres.in\/api\/users?page=2\n1 > Accept: application\/json\n1 > Host: reqres.in\n1 > Connection: Keep-Alive\n1 > User-Agent: Apache-HttpClient\/4.5.13 (Java\/1.8.0_382)\n1 > Accept-Encoding: gzip,deflate\n\n\n23:55:08.199 response time in milliseconds: 460\n1 < 200\n1 < Date: Fri, 11 Aug 2023 23:55:08 GMT\n1 < Content-Type: application\/json; charset=utf-8\n1 < Transfer-Encoding: chunked\n1 < Connection: keep-alive\n1 < X-Powered-By: Express\n1 < Access-Control-Allow-Origin: *\n1 < Etag: W\/\"406-ut0vzoCuidvyMf8arZpMpJ6ZRDw\"\n1 < Via: 1.1 vegur\n1 < Cache-Control: max-age=14400\n1 < CF-Cache-Status: HIT\n1 < Age: 6717\n1 < Report-To: {\"endpoints\":[{\"url\":\"https:\\\/\\\/a.nel.cloudflare.com\\\/report\\\/v3?s=yCsezTUUGWVT%2FPHPiJfhtC62Sc3OZ6gnnp%2Bru6O62iDOA6GfpD73aYkaDK87hnf6fWmI23U4F2Uk3M9FqGFu3MoqmiKBNKkZVuibuKE2fnWHBy40%2Brv0DVwwZA%3D%3D\"}],\"group\":\"cf-nel\",\"max_age\":604800}\n1 < NEL: {\"success_fraction\":0,\"report_to\":\"cf-nel\",\"max_age\":604800}\n1 < Vary: Accept-Encoding\n1 < Server: cloudflare\n1 < CF-RAY: 7f54686019b74689-DFW\n{\"page\":2,\"per_page\":6,\"total\":12,\"total_pages\":2,\"data\":[{\"id\":7,\"email\":\"michael.lawson@reqres.in\",\"first_name\":\"Michael\",\"last_name\":\"Lawson\",\"avatar\":\"https:\/\/reqres.in\/img\/faces\/7-image.jpg\"},{\"id\":8,\"email\":\"lindsay.ferguson@reqres.in\",\"first_name\":\"Lindsay\",\"last_name\":\"Ferguson\",\"avatar\":\"https:\/\/reqres.in\/img\/faces\/8-image.jpg\"},{\"id\":9,\"email\":\"tobias.funke@reqres.in\",\"first_name\":\"Tobias\",\"last_name\":\"Funke\",\"avatar\":\"https:\/\/reqres.in\/img\/faces\/9-image.jpg\"},{\"id\":10,\"email\":\"byron.fields@reqres.in\",\"first_name\":\"Byron\",\"last_name\":\"Fields\",\"avatar\":\"https:\/\/reqres.in\/img\/faces\/10-image.jpg\"},{\"id\":11,\"email\":\"george.edwards@reqres.in\",\"first_name\":\"George\",\"last_name\":\"Edwards\",\"avatar\":\"https:\/\/reqres.in\/img\/faces\/11-image.jpg\"},{\"id\":12,\"email\":\"rachel.howell@reqres.in\",\"first_name\":\"Rachel\",\"last_name\":\"Howell\",\"avatar\":\"https:\/\/reqres.in\/img\/faces\/12-image.jpg\"}],\"support\":{\"url\":\"https:\/\/reqres.in\/#support-heading\",\"text\":\"To keep ReqRes free, contributions towards server costs are appreciated!\"}}\n\n"},{"result":{"nanos":6200,"millis":0.0062,"status":"passed"},"step":{"line":17,"prefix":"Then","index":3,"text":"status 200"}}],"executorName":"pool-1-thread-4","line":13,"name":"Simple GET with background","description":"","durationMillis":993.663023,"startTime":1691798107192,"failed":false,"refId":"[2:13]","endTime":1691798108215,"exampleIndex":-1},{"sectionIndex":2,"stepResults":[{"result":{"nanos":82467220,"millis":82.46722,"status":"passed"},"step":{"background":true,"line":4,"prefix":"*","index":0,"text":"url 'https:\/\/reqres.in\/api'"}},{"result":{"nanos":659547,"millis":0.659547,"status":"passed"},"step":{"background":true,"line":5,"prefix":"*","index":1,"text":"header Accept = 'application\/json'"}},{"result":{"nanos":381727,"millis":0.381727,"status":"passed"},"step":{"line":20,"prefix":"Given","index":0,"text":"path '\/users\/2'"}},{"result":{"nanos":909365676,"millis":909.365676,"status":"passed"},"step":{"line":21,"prefix":"When","index":1,"text":"method GET"},"stepLog":"23:55:07.746 request:\n1 > GET https:\/\/reqres.in\/api\/users\/2\n1 > Accept: application\/json\n1 > Host: reqres.in\n1 > Connection: Keep-Alive\n1 > User-Agent: Apache-HttpClient\/4.5.13 (Java\/1.8.0_382)\n1 > Accept-Encoding: gzip,deflate\n\n\n23:55:08.198 response time in milliseconds: 450\n1 < 200\n1 < Date: Fri, 11 Aug 2023 23:55:08 GMT\n1 < Content-Type: application\/json; charset=utf-8\n1 < Transfer-Encoding: chunked\n1 < Connection: keep-alive\n1 < X-Powered-By: Express\n1 < Access-Control-Allow-Origin: *\n1 < Etag: W\/\"118-pbdwwFo9SKNhD3Lx5iHJyngpq00\"\n1 < Via: 1.1 vegur\n1 < Cache-Control: max-age=14400\n1 < CF-Cache-Status: HIT\n1 < Age: 144\n1 < Report-To: {\"endpoints\":[{\"url\":\"https:\\\/\\\/a.nel.cloudflare.com\\\/report\\\/v3?s=YFV8S4k2tqRHU%2BK8PGKYBCx5qc38G4XG83KMrrIHuKjfyHd2xJqfDQT%2BwR3C64mYo0o2UGv%2BE%2BbTUpsbhZ7YCwkxgCCRtCTdquvX4dYUlK%2F2mHUHwjS6WU463w%3D%3D\"}],\"group\":\"cf-nel\",\"max_age\":604800}\n1 < NEL: {\"success_fraction\":0,\"report_to\":\"cf-nel\",\"max_age\":604800}\n1 < Vary: Accept-Encoding\n1 < Server: cloudflare\n1 < CF-RAY: 7f54686018d745e4-DFW\n{\"data\":{\"id\":2,\"email\":\"janet.weaver@reqres.in\",\"first_name\":\"Janet\",\"last_name\":\"Weaver\",\"avatar\":\"https:\/\/reqres.in\/img\/faces\/2-image.jpg\"},\"support\":{\"url\":\"https:\/\/reqres.in\/#support-heading\",\"text\":\"To keep ReqRes free, contributions towards server costs are appreciated!\"}}\n\n"},{"result":{"nanos":15801,"millis":0.015801,"status":"passed"},"step":{"line":22,"prefix":"Then","index":2,"text":"status 200"}},{"result":{"nanos":1266689,"millis":1.266689,"status":"passed"},"step":{"line":23,"prefix":"*","index":3,"text":"def id = response.data.id"}},{"result":{"nanos":19047144,"millis":19.047144,"status":"passed"},"step":{"line":24,"prefix":"And","index":4,"text":"print 'id is ' + id"},"stepLog":"23:55:08.231 [print] id is 2 \n"},{"result":{"nanos":35375097,"errorMessage":"match failed: EQUALS\n  $ | not equal (NUMBER:NUMBER)\n  2\n  3\n\nclasspath:feature\/REST_GET.feature:25","millis":35.375097,"status":"failed"},"step":{"line":25,"prefix":"And","index":5,"text":"match response.data.id == 3"},"stepLog":"23:55:08.279 classpath:feature\/REST_GET.feature:25\nAnd match response.data.id == 3\nmatch failed: EQUALS\n  $ | not equal (NUMBER:NUMBER)\n  2\n  3\n\nclasspath:feature\/REST_GET.feature:25\n"}],"line":19,"description":"","durationMillis":1048.578901,"failed":true,"error":"match failed: EQUALS\n  $ | not equal (NUMBER:NUMBER)\n  2\n  3\n\nclasspath:feature\/REST_GET.feature:25","executorName":"pool-1-thread-5","name":"Simple GET with background and validate response","startTime":1691798107197,"refId":"[3:19]","endTime":1691798108279,"exampleIndex":-1}],"callDepth":0,"name":"GET Samples","description":"","resultDate":"2023-08-11 11:55:09 PM","durationMillis":3057.849197,"passedCount":2}